adsfqwer	/home/qt/projects/aka-doc/tools/input/20.jpg
/home/qt/projects/aka-doc/tools/input/20.jpg	tran van dung
/home/qt/projects/aka-doc/tools/input/7.jpg	ta quy
/home/qt/projects/aka-doc/tools/input/10.jpg	xxx
/home/qt/projects/aka-doc/tools/input/2.jpg	zxcvqwer
/home/qt/projects/aka-doc/tools/input/12.jpg	asdfzxcv
/home/qt/projects/aka-doc/tools/input/4.jpg	le hong van
/home/qt/projects/aka-doc/tools/input/8.jpg	test
/home/qt/projects/aka-doc/tools/input/9.jpg	xxx
/home/qt/projects/aka-doc/tools/input/3.jpg	van
/home/qt/projects/aka-doc/tools/input/30.jpg	thanh
/home/qt/projects/aka-doc/tools/input/1.jpg	dog
